﻿54/ Щередин Глеб Андреевич/ ср. бал: 3,800000
6/ Рафиков Сергей Яковович/ ср. бал: 4,400000
30/ Ягодинский Ярослав Куприянович/ ср. бал: 3,800000
49/ Зёмина Агния Станиславовна/ ср. бал: 3,200000
7/ Кудяшова Ксения Марковна/ ср. бал: 4,200000
61/ Муравьёв Захар Ираклиевич/ ср. бал: 3,400000
81/ Бонч-Бруевич Порфирий Никитевич/ ср. бал: 4,400000
34/ Носов Евграф Владиславович/ ср. бал: 3,000000
42/ Явлюхин Федот Сигизмундович/ ср. бал: 3,600000
83/ Тюлепов Эрнест Ипатиевич/ ср. бал: 5,200000
14/ Юнкин Михаил Олегович/ ср. бал: 4,600000
12/ Кузьмин Александр Куприянович/ ср. бал: 4,400000
82/ Рейслер Андрей Гордеевич/ ср. бал: 5,000000
43/ Чечин Ярослав Давыдович/ ср. бал: 5,000000
22/ Тёмкина Агата Федотовна/ ср. бал: 4,400000
85/ Проскура Константин Георгиевич/ ср. бал: 4,400000
46/ Камкин Елизар Ерофеевич/ ср. бал: 4,200000
87/ Резяпкин Юрий Мечиславович/ ср. бал: 4,800000
50/ Хохорина Александра Данилевна/ ср. бал: 4,800000
41/ Ивазова Яна Владленовна/ ср. бал: 4,600000
59/ Архаткина Екатерина Глебовна/ ср. бал: 3,800000
70/ Астафьев Марк Макарович/ ср. бал: 3,600000
10/ Аспидова Регина Ивановна/ ср. бал: 4,400000
74/ Муравьева Регина Елизаровна/ ср. бал: 4,000000
78/ Романенко Архип Вадимович/ ср. бал: 5,200000
72/ Костиков Евгений Измаилович/ ср. бал: 4,000000
11/ Яхонтов Степан Гордеевич/ ср. бал: 3,800000
52/ Михайлова Виктория Данилевна/ ср. бал: 3,600000

